<svg width="16" height="16" viewBox="0 0 16 16" fill="none" xmlns="http://www.w3.org/2000/svg">
  <rect width="16" height="16" fill="white"/>
  <path d="M11.0723 14.4845C10.9803 14.4333 10.9138 14.3566 10.8729 14.2544C10.832 14.1521 10.8115 14.0396 10.8115 13.9169C10.8115 13.7123 10.8575 13.4771 10.9496 13.2112C11.0416 12.9555 11.1593 12.7356 11.3024 12.5515C11.4456 12.3674 11.5939 12.2754 11.7473 12.2754C11.8496 12.2754 11.9365 12.3214 12.0081 12.4134C12.09 12.4952 12.1309 12.5924 12.1309 12.7049C11.8445 13.0015 11.6297 13.2981 11.4865 13.5947C11.3536 13.8913 11.2155 14.1879 11.0723 14.4845ZM12.361 9.45259C12.228 9.45259 12.1104 9.42191 12.0081 9.36054C11.9161 9.28895 11.8701 9.18156 11.8701 9.03838C11.8701 8.86451 11.9672 8.71622 12.1615 8.59349C12.3661 8.47076 12.5655 8.40939 12.7598 8.40939C12.8826 8.40939 12.9797 8.43496 13.0513 8.4861C13.1229 8.53724 13.1587 8.6344 13.1587 8.77758C13.1587 8.93099 13.0769 9.0844 12.9133 9.23781C12.7496 9.381 12.5655 9.45259 12.361 9.45259Z" fill="#F41F4E"/>
  <path d="M5.83811 14.3803C5.69493 14.3803 5.51595 14.3445 5.30117 14.2729C5.09662 14.2115 4.91253 14.0939 4.74889 13.9201C4.59548 13.7462 4.51877 13.4905 4.51877 13.153C4.51877 12.8564 4.58014 12.4678 4.70287 11.9871C4.83582 11.5064 4.99946 10.9694 5.19378 10.3763C5.3881 9.77284 5.58242 9.14385 5.77674 8.4893C5.97107 7.82452 6.12959 7.15973 6.25232 6.49495C6.38528 5.83017 6.45175 5.19096 6.45175 4.57731C6.45175 4.1989 6.43641 3.84605 6.40573 3.51877C6.38528 3.19149 6.30857 2.93069 6.17561 2.73637C6.05289 2.53183 5.83811 2.42955 5.53129 2.42955C5.24492 2.42955 4.99946 2.51649 4.79491 2.69035C4.60059 2.85399 4.43695 3.06877 4.304 3.33468C4.18127 3.60059 4.08922 3.88184 4.02786 4.17844C3.97672 4.47504 3.95115 4.75118 3.95115 5.00686C3.95115 5.1705 3.96138 5.32391 3.98183 5.4671C4.01251 5.60005 4.04831 5.72278 4.08922 5.83528C3.69035 5.83528 3.4091 5.7279 3.24546 5.51312C3.08182 5.28812 3 5.02732 3 4.73072C3 4.41367 3.07159 4.09662 3.21478 3.77957C3.36819 3.46252 3.57274 3.17104 3.82842 2.90513C4.09433 2.62899 4.39604 2.4091 4.73355 2.24546C5.07105 2.08182 5.42901 2 5.80743 2C6.44153 2 6.91199 2.25057 7.21881 2.75172C7.53586 3.24263 7.69439 3.9023 7.69439 4.73072C7.69439 5.32391 7.62791 5.94778 7.49495 6.60234C7.36199 7.24667 7.19836 7.891 7.00403 8.53532C6.80971 9.17965 6.61028 9.79841 6.40573 10.3916C6.21141 10.9848 6.04777 11.532 5.91481 12.0331C5.78186 12.5342 5.71538 12.9587 5.71538 13.3064C5.71538 13.4803 5.74095 13.6235 5.79209 13.736C5.85345 13.8485 5.97107 13.9047 6.14493 13.9047C6.4313 13.9047 6.76369 13.7564 7.14211 13.4598C7.52052 13.1735 7.90916 12.7797 8.30803 12.2786C8.71713 11.7672 9.11088 11.1945 9.4893 10.5604C9.87794 9.92625 10.2257 9.26658 10.5325 8.58134C10.8393 7.88588 11.0848 7.20576 11.2689 6.54097C11.453 5.87619 11.545 5.26255 11.545 4.70004C11.545 4.18867 11.4683 3.81537 11.3149 3.58014C11.1615 3.33468 10.9569 3.17615 10.7012 3.10456C10.8444 2.8591 10.9927 2.68012 11.1461 2.56762C11.3098 2.45512 11.4581 2.39887 11.591 2.39887C11.8058 2.39887 12.0155 2.53694 12.22 2.81308C12.4246 3.08922 12.5268 3.51877 12.5268 4.10173C12.5268 4.66424 12.4195 5.30346 12.2047 6.01938C12.0001 6.7353 11.7189 7.4819 11.3609 8.25918C11.003 9.02624 10.5939 9.77284 10.1336 10.499C9.67339 11.2251 9.1927 11.8797 8.69156 12.4627C8.19042 13.0456 7.69439 13.511 7.20347 13.8587C6.71255 14.2064 6.25743 14.3803 5.83811 14.3803Z" fill="#11151C"/>
</svg>
