<svg width="155" height="93" viewBox="0 0 155 93" fill="none" xmlns="http://www.w3.org/2000/svg">
<path class="logo__code" d="M85.3854 92.9196L73.6896 90.0673C72.4626 89.7773 71.7723 88.6976 72.1174 87.6663L98.289 11.8958C98.6342 10.8645 99.9188 10.2844 101.146 10.5745L112.842 13.4267C114.069 13.7168 114.759 14.7965 114.414 15.8278L88.2422 91.5982C87.8779 92.6295 86.6125 93.2258 85.3854 92.9196ZM63.5278 74.8391L71.8682 67.362C72.7502 66.5724 72.6926 65.3154 71.7148 64.5903L54.3438 51.747L71.7148 38.9038C72.6926 38.1786 72.7693 36.9217 71.8682 36.1321L63.5278 28.6549C62.665 27.8814 61.2078 27.8331 60.2683 28.5744L32.6396 50.329C31.6617 51.0863 31.6617 52.3916 32.6396 53.149L60.2683 74.9197C61.2078 75.661 62.665 75.6287 63.5278 74.8391ZM126.263 74.9358L153.892 53.1651C154.87 52.4077 154.87 51.1024 153.892 50.3451L126.263 28.5583C125.343 27.8331 123.885 27.8653 123.003 28.6388L114.663 36.116C113.781 36.9056 113.839 38.1625 114.816 38.8877L132.187 51.747L114.816 64.5903C113.839 65.3154 113.762 66.5724 114.663 67.362L123.003 74.8391C123.866 75.6287 125.323 75.661 126.263 74.9358Z" fill="#F2F4F7"/>
<path fill-rule="evenodd" clip-rule="evenodd" d="M85.6275 91.9493C86.4573 92.1564 87.1377 91.7168 87.2984 91.2677C87.2987 91.2669 87.299 91.266 87.2993 91.2651L113.465 15.5104C113.466 15.5093 113.466 15.508 113.467 15.5068C113.581 15.1572 113.399 14.5862 112.612 14.3999L112.605 14.3983L100.916 11.5476C100.915 11.5474 100.914 11.5471 100.913 11.5469C100.049 11.3442 99.3757 11.7996 99.2373 12.2132L99.2343 12.2223L73.0658 87.9836C73.0653 87.9848 73.065 87.986 73.0646 87.9872C72.9501 88.3369 73.1318 88.9079 73.9197 89.0941L73.9266 89.0958L85.6275 91.9493ZM72.1174 87.6663L98.289 11.8958C98.6342 10.8645 99.9188 10.2844 101.146 10.5745L112.842 13.4267C114.069 13.7168 114.759 14.7965 114.414 15.8278L88.2422 91.5982C87.8779 92.6295 86.6125 93.2258 85.3854 92.9196L73.6896 90.0673C72.4626 89.7773 71.7723 88.6976 72.1174 87.6663ZM62.8603 74.0945L71.2007 66.6174C71.4297 66.4123 71.4999 66.1878 71.4903 66.0042C71.4807 65.8207 71.3869 65.5925 71.1203 65.3944M71.1191 65.3935L52.6617 51.747L71.1191 38.1005C71.1195 38.1003 71.1198 38.1001 71.1201 38.0998C71.3913 37.8984 71.4874 37.6669 71.4977 37.4851C71.5079 37.3072 71.442 37.0882 71.2092 36.8842L71.2006 36.8767L62.8603 29.3995C62.3649 28.9554 61.4511 28.9149 60.8877 29.3594L33.2519 51.1196C32.9909 51.3217 32.9062 51.5531 32.9062 51.739C32.9062 51.9249 32.9909 52.1562 33.2519 52.3584L33.2585 52.3635L60.8872 74.1342C61.4594 74.5857 62.3677 74.5453 62.8527 74.1014L62.8603 74.0945M71.7148 38.9038L54.3438 51.747L71.7148 64.5903C72.6926 65.3154 72.7502 66.5724 71.8682 67.362L63.5278 74.8391C62.665 75.6287 61.2078 75.661 60.2683 74.9197L32.6396 53.149C31.6617 52.3916 31.6617 51.0863 32.6396 50.329L60.2683 28.5744C61.2078 27.8331 62.665 27.8814 63.5278 28.6549L71.8682 36.1321C72.7693 36.9217 72.6926 38.1786 71.7148 38.9038ZM123.003 74.8391C123.866 75.6287 125.323 75.661 126.263 74.9358L153.892 53.1651C154.87 52.4077 154.87 51.1024 153.892 50.3451L126.263 28.5583C125.343 27.8331 123.885 27.8653 123.003 28.6388L114.663 36.116C113.781 36.9056 113.839 38.1625 114.816 38.8877L132.187 51.747L114.816 64.5903C113.839 65.3154 113.762 66.5724 114.663 67.362L123.003 74.8391ZM115.412 65.3935L133.869 51.7475L115.412 38.0844C115.412 38.0845 115.412 38.0843 115.412 38.0844C115.145 37.8862 115.051 37.6574 115.041 37.4737C115.031 37.2901 115.101 37.0661 115.33 36.861L123.663 29.3907C123.664 29.3896 123.665 29.3886 123.666 29.3876C124.183 28.9376 125.1 28.9152 125.644 29.3435C125.644 29.3434 125.644 29.3436 125.644 29.3435L153.272 51.1303L153.279 51.1357C153.54 51.3378 153.625 51.5692 153.625 51.7551C153.625 51.941 153.54 52.1723 153.279 52.3745L125.652 74.1442C125.651 74.1451 125.65 74.146 125.648 74.1469C125.073 74.5878 124.163 74.5449 123.679 74.1014L115.331 66.6174L115.322 66.6099C115.089 66.4058 115.023 66.1869 115.033 66.009C115.044 65.8272 115.14 65.5958 115.411 65.3944" fill="#F2F4F7"/>
<path d="M107.367 58.8533C106.885 58.5852 106.536 58.183 106.322 57.6467C106.107 57.1105 106 56.5206 106 55.8771C106 54.8046 106.241 53.5712 106.724 52.177C107.207 50.8363 107.823 49.6834 108.574 48.7182C109.325 47.7529 110.102 47.2703 110.907 47.2703C111.443 47.2703 111.899 47.5116 112.274 47.9942C112.703 48.4232 112.918 48.9327 112.918 49.5225C111.416 51.0777 110.29 52.6328 109.539 54.1879C108.842 55.743 108.118 57.2982 107.367 58.8533ZM114.124 32.4698C113.427 32.4698 112.81 32.3089 112.274 31.9871C111.792 31.6118 111.55 31.0487 111.55 30.2979C111.55 29.3863 112.06 28.6088 113.079 27.9653C114.151 27.3217 115.197 27 116.216 27C116.859 27 117.369 27.1341 117.744 27.4022C118.119 27.6703 118.307 28.1798 118.307 28.9305C118.307 29.7349 117.878 30.5393 117.02 31.3436C116.162 32.0944 115.197 32.4698 114.124 32.4698Z" fill="#F41F4E"/>
<path d="M14.881 64.9131C14.1302 64.9131 13.1918 64.7254 12.0656 64.3501C10.9931 64.0283 10.0279 63.4116 9.16989 62.5C8.36551 61.5884 7.96332 60.2478 7.96332 58.4781C7.96332 56.923 8.28507 54.8852 8.92857 52.3649C9.6257 49.8445 10.4837 47.0292 11.5026 43.9189C12.5215 40.755 13.5403 37.4571 14.5592 34.0251C15.5781 30.5395 16.4093 27.0538 17.0528 23.5682C17.7499 20.0826 18.0985 16.731 18.0985 13.5135C18.0985 11.5294 18.018 9.67932 17.8571 7.96332C17.7499 6.24732 17.3477 4.87988 16.6506 3.861C16.0071 2.7885 14.881 2.25225 13.2722 2.25225C11.7707 2.25225 10.4837 2.70806 9.4112 3.61969C8.39232 4.47769 7.53432 5.60382 6.8372 6.99807C6.1937 8.39232 5.71107 9.86701 5.38932 11.4221C5.12119 12.9773 4.98713 14.4251 4.98713 15.7658C4.98713 16.6238 5.04076 17.4281 5.14801 18.1789C5.30888 18.876 5.49657 19.5195 5.71107 20.1094C3.61969 20.1094 2.145 19.5463 1.287 18.4202C0.429001 17.2405 0 15.873 0 14.3179C0 12.6555 0.375375 10.9931 1.12613 9.33076C1.9305 7.66838 3.003 6.14007 4.34363 4.74582C5.73788 3.29794 7.31982 2.145 9.08945 1.287C10.8591 0.428999 12.736 0 14.7201 0C18.0448 0 20.5116 1.31381 22.1203 3.94144C23.7827 6.51544 24.6139 9.97426 24.6139 14.3179C24.6139 17.4281 24.2653 20.6993 23.5682 24.1313C22.8711 27.5097 22.0131 30.888 20.9942 34.2664C19.9753 37.6448 18.9296 40.8891 17.8571 43.9994C16.8383 47.1096 15.9803 49.9786 15.2831 52.6062C14.586 55.2338 14.2375 57.4592 14.2375 59.2825C14.2375 60.1941 14.3715 60.9449 14.6396 61.5348C14.9614 62.1246 15.5781 62.4196 16.4897 62.4196C17.9912 62.4196 19.734 61.642 21.7181 60.0869C23.7023 58.5854 25.74 56.5208 27.8314 53.8932C29.9764 51.2119 32.041 48.2089 34.0251 44.8842C36.0628 41.5594 37.8861 38.1006 39.4949 34.5077C41.1036 30.8612 42.3906 27.2952 43.3559 23.8095C44.3211 20.3239 44.8037 17.1064 44.8037 14.157C44.8037 11.4758 44.4015 9.51845 43.5972 8.28507C42.7928 6.99807 41.7203 6.16688 40.3797 5.79151C41.1304 4.5045 41.908 3.56606 42.7124 2.97619C43.5704 2.38632 44.3479 2.09138 45.0451 2.09138C46.1712 2.09138 47.2705 2.81532 48.343 4.26319C49.4155 5.71107 49.9517 7.96332 49.9517 11.0199C49.9517 13.9693 49.3887 17.3209 48.2626 21.0746C47.1901 24.8284 45.7154 28.743 43.8385 32.8185C41.9616 36.8404 39.8166 40.755 37.4035 44.5624C34.9904 48.3698 32.47 51.8018 29.8423 54.8584C27.2147 57.9151 24.6139 60.355 22.0399 62.1783C19.4659 64.0015 17.0796 64.9131 14.881 64.9131Z" fill="#11151C"/>
<path d="M52.5616 60.0064C50.4702 60.0064 48.9151 59.3361 47.8962 57.9955C46.8773 56.7085 46.3679 55.1266 46.3679 53.2497C46.3679 52.0163 46.5824 50.4612 47.0114 48.5843C47.494 46.7074 48.1107 44.7501 48.8614 42.7124C49.6122 40.621 50.4702 38.6637 51.4354 36.8404C52.4543 35.0172 53.5268 33.5425 54.6529 32.4163C55.7791 31.2366 56.8784 30.6467 57.9509 30.6467C58.4335 30.6467 58.8357 30.8076 59.1574 31.1293C59.5328 31.3975 59.7205 31.8265 59.7205 32.4163C59.7205 33.0598 59.2915 34.1055 58.4335 35.5534C57.6291 37.0013 56.6639 38.6637 55.5378 40.5405C54.4116 42.4174 53.4196 44.4015 52.5616 46.4929C51.7572 48.5307 51.355 50.488 51.355 52.3649C51.355 54.2954 51.6767 55.5824 52.3202 56.2259C52.9637 56.8694 53.9558 57.1911 55.2964 57.1911C57.1197 57.1911 59.0502 56.2795 61.0879 54.4562C63.1793 52.633 65.378 49.4423 67.6838 44.8842L68.4078 45.6885C66.8526 50.3003 64.6004 53.8396 61.651 56.3063C58.7553 58.7731 55.7254 60.0064 52.5616 60.0064ZM62.2141 23.166C61.3561 23.166 60.5785 22.9515 59.8814 22.5225C59.2379 22.0935 58.9161 21.4232 58.9161 20.5116C58.9161 19.3855 59.5596 18.4202 60.8466 17.6158C62.1873 16.7578 63.5011 16.3288 64.7881 16.3288C65.5924 16.3288 66.236 16.5165 66.7186 16.8919C67.2012 17.2673 67.4425 17.9108 67.4425 18.8224C67.4425 19.8413 66.8795 20.8333 65.7533 21.7986C64.6808 22.7102 63.5011 23.166 62.2141 23.166Z" fill="#11151C"/>
<path d="M92.1538 59.5238C90.2769 59.5238 88.8559 59.0412 87.8906 58.0759C86.979 57.1107 86.5232 55.8773 86.5232 54.3758C86.5232 53.2497 86.7109 52.0699 87.0863 50.8366C87.5153 49.6032 87.9174 48.343 88.2928 47.056C88.6682 45.7154 88.8559 44.4284 88.8559 43.195C88.8559 41.6935 88.5341 40.6746 87.8906 40.1384C87.3008 39.5485 86.55 39.2535 85.6384 39.2535C83.976 39.2535 82.2868 39.9507 80.5708 41.3449C78.8548 42.6855 77.1924 44.4284 75.5837 46.5734C73.9749 48.6647 72.4734 50.8366 71.0792 53.0888C69.6849 55.3411 68.4515 57.352 67.379 59.1216C66.521 59.1216 65.7167 58.9608 64.9659 58.639C64.1615 58.3709 63.5449 57.9419 63.1159 57.352C63.1159 57.0839 63.4108 56.2527 64.0007 54.8584C64.5369 53.4642 65.1804 51.7482 65.9312 49.7104C66.6819 47.6727 67.3522 45.5813 67.9421 43.4363C68.532 41.2913 68.8269 39.334 68.8269 37.5644C69.1487 37.189 69.6581 36.8136 70.3552 36.4382C71.0524 36.0628 71.7763 35.8752 72.5271 35.8752C73.9749 35.8752 74.6989 36.5723 74.6989 37.9665C74.6989 38.8245 74.4576 40.2724 73.9749 42.3102C73.4923 44.2943 72.8756 46.3857 72.1249 48.5843C73.5727 46.3857 75.1815 44.2139 76.9511 42.0689C78.7744 39.8702 80.7049 38.047 82.7426 36.5991C84.7804 35.1512 86.8181 34.4273 88.8559 34.4273C90.9473 34.4273 92.4488 35.178 93.3604 36.6795C94.3256 38.181 94.8083 39.8434 94.8083 41.6667C94.8083 43.329 94.5401 44.8842 94.0039 46.3321C93.4676 47.7263 92.9046 49.0937 92.3147 50.4344C91.7784 51.7214 91.5103 53.0352 91.5103 54.3758C91.5103 55.5019 91.7248 56.3063 92.1538 56.7889C92.6364 57.2179 93.2263 57.4324 93.9235 57.4324C95.2641 57.4324 96.6047 56.8158 97.9453 55.5824C99.286 54.2954 100.573 52.6866 101.806 50.7561C103.093 48.8256 104.219 46.8683 105.185 44.8842L106.07 45.9299C104.943 48.5575 103.683 50.8902 102.289 52.9279C100.895 54.9657 99.3664 56.5744 97.704 57.7542C96.0416 58.9339 94.1916 59.5238 92.1538 59.5238Z" fill="#11151C"/>
</svg>
